<?xml version="1.0" encoding="UTF-8"?>
<svg width="21px" height="21px" viewBox="0 0 21 21" version="1.1" xmlns="http://www.w3.org/2000/svg" xmlns:xlink="http://www.w3.org/1999/xlink">
    <!-- Generator: Sketch 52.2 (67145) - http://www.bohemiancoding.com/sketch -->
    <title>search-line</title>
    <desc>Created with Sketch.</desc>
    <g id="Page-1" stroke="none" stroke-width="1" fill="none" fill-rule="evenodd">
        <g id="Desktop_1" transform="translate(-1277.000000, -22.000000)" fill="#FFFFFF" fill-rule="nonzero">
            <g id="Group-13" transform="translate(1277.000000, 22.000000)">
                <g id="search-line">
                    <path d="M16.5723639,15.1106134 L21,19.5372157 L19.5372157,21 L15.1106134,16.5723639 C13.4635474,17.8927165 11.4148874,18.6108599 9.30392833,18.6078567 C4.16815989,18.6078567 0,14.4396968 0,9.30392833 C0,4.16815989 4.16815989,0 9.30392833,0 C14.4396968,0 18.6078567,4.16815989 18.6078567,9.30392833 C18.6108599,11.4148874 17.8927165,13.4635474 16.5723639,15.1106134 Z M14.4986216,14.3435562 C15.8105922,12.9943684 16.5432809,11.1858332 16.540317,9.30392833 C16.540317,5.30530669 13.3015162,2.06753963 9.30392833,2.06753963 C5.30530669,2.06753963 2.06753963,5.30530669 2.06753963,9.30392833 C2.06753963,13.3015162 5.30530669,16.540317 9.30392833,16.540317 C11.1858332,16.5432809 12.9943684,15.8105922 14.3435562,14.4986216 L14.4986216,14.3435562 Z" id="Shape"></path>
                </g>
            </g>
        </g>
    </g>
</svg>