<?xml version="1.0" encoding="UTF-8"?>
<svg width="21px" height="21px" viewBox="0 0 21 21" version="1.1" xmlns="http://www.w3.org/2000/svg" xmlns:xlink="http://www.w3.org/1999/xlink">
    <!-- Generator: Sketch 52.2 (67145) - http://www.bohemiancoding.com/sketch -->
    <title>shopping-cart-2-line</title>
    <desc>Created with Sketch.</desc>
    <g id="Page-1" stroke="none" stroke-width="1" fill="none" fill-rule="evenodd">
        <g id="Desktop_1" transform="translate(-1379.000000, -22.000000)" fill="#FFFFFF" fill-rule="nonzero">
            <g id="Group-13" transform="translate(1277.000000, 22.000000)">
                <g id="shopping-cart-2-line" transform="translate(102.000000, 0.000000)">
                    <path d="M3.25866054,4.60372829 L0,1.39881373 L1.42183308,0 L4.67948879,3.20590312 L19.9950928,3.20590312 C20.3126733,3.20588143 20.6115715,3.35356321 20.8012001,3.60419032 C20.9908286,3.85481742 21.0488646,4.17888635 20.9577191,4.47818105 L18.5461294,12.3866685 C18.4187296,12.805011 18.0274047,13.0915428 17.5835032,13.0915125 L5.2683186,13.0915125 L5.2683186,15.0686344 L16.3214379,15.0686344 L16.3214379,17.0457562 L4.26348957,17.0457562 C3.70853782,17.0457562 3.25866054,16.6031624 3.25866054,16.0571953 L3.25866054,4.60372829 Z M5.2683186,5.183025 L5.2683186,11.1143906 L16.8359104,11.1143906 L18.6446026,5.183025 L5.2683186,5.183025 Z M4.76590408,21 C3.93347646,21 3.25866054,20.3361093 3.25866054,19.5171586 C3.25866054,18.6982079 3.93347646,18.0343172 4.76590408,18.0343172 C5.59833171,18.0343172 6.27314763,18.6982079 6.27314763,19.5171586 C6.27314763,20.3361093 5.59833171,21 4.76590408,21 Z M16.8238524,21 C15.9914248,21 15.3166089,20.3361093 15.3166089,19.5171586 C15.3166089,18.6982079 15.9914248,18.0343172 16.8238524,18.0343172 C17.6562801,18.0343172 18.331096,18.6982079 18.331096,19.5171586 C18.331096,20.3361093 17.6562801,21 16.8238524,21 Z" id="Shape"></path>
                </g>
            </g>
        </g>
    </g>
</svg>