<?xml version="1.0" encoding="UTF-8"?>
<svg width="27px" height="22px" viewBox="0 0 27 22" version="1.1" xmlns="http://www.w3.org/2000/svg" xmlns:xlink="http://www.w3.org/1999/xlink">
    <!-- Generator: Sketch 52.2 (67145) - http://www.bohemiancoding.com/sketch -->
    <title>Youtube</title>
    <desc>Created with Sketch.</desc>
    <g id="Page-1" stroke="none" stroke-width="1" fill="none" fill-rule="evenodd">
        <g id="Desktop_5" transform="translate(-967.000000, -478.000000)" fill="#3B78E7" fill-rule="nonzero">
            <path d="M990.7681,482.118125 C990.6655,481.708375 990.3739,481.399 990.04045,481.304125 C989.4505,481.135 986.575,480.75 980.5,480.75 C974.425,480.75 971.5522,481.135 970.95685,481.304125 C970.62745,481.397625 970.33585,481.707 970.2319,482.118125 C970.08475,482.701125 969.7,485.1445 969.7,489 C969.7,492.8555 970.08475,495.2975 970.2319,495.88325 C970.3345,496.291625 970.6261,496.601 970.9582,496.6945 C971.5522,496.865 974.425,497.25 980.5,497.25 C986.575,497.25 989.44915,496.865 990.04315,496.695875 C990.37255,496.602375 990.66415,496.293 990.7681,495.881875 C990.91525,495.298875 991.3,492.85 991.3,489 C991.3,485.15 990.91525,482.7025 990.7681,482.118125 Z M993.38305,481.43475 C994,483.885 994,489 994,489 C994,489 994,494.115 993.38305,496.56525 C993.04015,497.919625 992.0371,498.98525 990.76675,499.3455 C988.4596,500 980.5,500 980.5,500 C980.5,500 972.54445,500 970.23325,499.3455 C968.9575,498.97975 967.9558,497.9155 967.61695,496.56525 C967,494.115 967,489 967,489 C967,489 967,483.885 967.61695,481.43475 C967.95985,480.080375 968.9629,479.01475 970.23325,478.6545 C972.54445,478 980.5,478 980.5,478 C980.5,478 988.4596,478 990.76675,478.6545 C992.0425,479.02025 993.0442,480.0845 993.38305,481.43475 Z M977.8,494.5 L977.8,484.416667 L985.9,489.458333 L977.8,494.5 Z" id="Youtube"></path>
        </g>
    </g>
</svg>